…
.small-code[
```{r logit-augment-fake, eval=FALSE}
augment(model_transmission, data = mtcars, type.predict = "response")
```
]

.pull-left.small-code[
```{r logit-augment-real, include=FALSE}
augment(model_transmission, data = mtcars, type.predict = "response") %>% 
  select(mpg, am, .fitted)
```

```{r logit-augment-manual, eval=FALSE}
## # A tibble: 32 x 3
##      mpg    am .fitted
##    <dbl> <dbl>   <dbl>
##  1  21       1  0.461 
##  2  21       1  0.461 
##  3  22.8     1  0.598 
##  4  21.4     0  0.492 
##  5  18.7     0  0.297 
##  6  18.1     0  0.260 
*##  7  14.3     0  0.0986
*##  8  24.4     0  0.708
##  9  22.8     0  0.598 
## 10  19.2     0  0.330 
## # … with 22 more rows
```
…
---

layout: false

.small-code[
```{r ipw-fake, eval=FALSE}
augment(model_transmission, data = mtcars, type.predict = "response") %>%
  select(mpg, am, propensity = .fitted) %>%
  {{mutate(ip_weight = (am / propensity) + ((1 - am) / (1 - propensity)))}}
```
]

.pull-left.small-code[
```{r ipw-augment-manual, eval=FALSE}
## # A tibble: 32 x 4
##      mpg    am propensity ip_weight
##    <dbl> <dbl>      <dbl>     <dbl>
##  1  21       1     0.461       2.17
##  2  21       1     0.461       2.17
##  3  22.8     1     0.598       1.67
##  4  21.4     0     0.492       1.97
##  5  18.7     0     0.297       1.42
##  6  18.1     0     0.260       1.35
*##  7  14.3     0     0.0986      1.11
*##  8  24.4     0     0.708       3.43
##  9  22.8     0     0.598       2.49
## 10  19.2     0     0.330       1.49
### … with 22 more rows
```
…
